…
  <chr>                <int>
1 Placebo                 86
2 Screen Failure          52
3 Xanomeline High Dose    72
4 Xanomeline Low Dose     96
Total treated subjects: 306 
Subjects that had at least one TEAE per arm:  
# A tibble: 3 × 4
  ACTARM                   n AESOC    AETERM  
  <chr>                <int> <chr>    <chr>   
1 Placebo                 65 Any TEAE Any TEAE
2 Xanomeline High Dose    68 Any TEAE Any TEAE
3 Xanomeline Low Dose     84 Any TEAE Any TEAE
Subjects that had at least one TEAE in each AESOC:  
# A tibble: 60 × 4
   AESOC                                      ACTARM                   n AETERM
   <chr>                                      <chr>                <int> <chr> 
 1 CARDIAC DISORDERS                          Placebo                 12 <NA>  
 2 CARDIAC DISORDERS                          Xanomeline High Dose    14 <NA>  
 3 CARDIAC DISORDERS                          Xanomeline Low Dose     14 <NA>  
 4 CONGENITAL, FAMILIAL AND GENETIC DISORDERS Xanomeline High Dose     2 <NA>  
 5 CONGENITAL, FAMILIAL AND GENETIC DISORDERS Xanomeline Low Dose      1 <NA>  
 6 EAR AND LABYRINTH DISORDERS                Placebo                  1 <NA>  
 7 EAR AND LABYRINTH DISORDERS                Xanomeline High Dose     1 <NA>  
 8 EAR AND LABYRINTH DISORDERS                Xanomeline Low Dose      2 <NA>  
 9 EYE DISORDERS                              Placebo                  2 <NA>  
10 EYE DISORDERS                              Xanomeline High Dose     1 <NA>  
# ℹ 50 more rows
Subjects that had at least one instance of this specific AE per arm:  
# A tibble: 354 × 4
   AESOC             AETERM                               ACTARM               n
   <chr>             <chr>                                <chr>            <int>
 1 CARDIAC DISORDERS ATRIAL FIBRILLATION                  Placebo              1
 2 CARDIAC DISORDERS ATRIAL FIBRILLATION                  Xanomeline High…     2
 3 CARDIAC DISORDERS ATRIAL FIBRILLATION                  Xanomeline Low …     2
 4 CARDIAC DISORDERS ATRIAL FLUTTER                       Xanomeline High…     1
 5 CARDIAC DISORDERS ATRIAL FLUTTER                       Xanomeline Low …     1
 6 CARDIAC DISORDERS ATRIAL HYPERTROPHY                   Placebo              1
 7 CARDIAC DISORDERS ATRIOVENTRICULAR BLOCK FIRST DEGREE  Placebo              1
 8 CARDIAC DISORDERS ATRIOVENTRICULAR BLOCK FIRST DEGREE  Xanomeline Low …     1
 9 CARDIAC DISORDERS ATRIOVENTRICULAR BLOCK SECOND DEGREE Placebo              1
10 CARDIAC DISORDERS BRADYCARDIA                          Placebo              1
# ℹ 344 more rows
…
